<?xml version="1.0" encoding="UTF-8"?>
<testng-results ignored="0" total="2" passed="2" failed="0" skipped="0">
  <reporter-output>
  </reporter-output>
  <suite started-at="2021-01-14T16:14:41 CET" name="Suite" finished-at="2021-01-14T16:15:16 CET" duration-ms="35231">
    <groups>
    </groups>
    <test started-at="2021-01-14T16:14:41 CET" name="TCPNetlinkGroup" finished-at="2021-01-14T16:14:59 CET" duration-ms="18320">
      <class name="TestCases.TCPNetlinkGroup">
        <test-method is-config="true" signature="Initializtion()[pri:0, instance:TestCases.TCPNetlinkGroup@475e586c]" started-at="2021-01-14T16:14:41 CET" name="Initializtion" finished-at="2021-01-14T16:14:45 CET" duration-ms="3944" status="PASS">
          <reporter-output>
          </reporter-output>
        </test-method> <!-- Initializtion -->
        <test-method signature="TCPNelink()[pri:0, instance:TestCases.TCPNetlinkGroup@475e586c]" started-at="2021-01-14T16:14:45 CET" name="TCPNelink" finished-at="2021-01-14T16:14:59 CET" duration-ms="14355" status="PASS">
          <reporter-output>
          </reporter-output>
        </test-method> <!-- TCPNelink -->
      </class> <!-- TestCases.TCPNetlinkGroup -->
    </test> <!-- TCPNetlinkGroup -->
    <test started-at="2021-01-14T16:14:59 CET" name="TCPMecweldGroup" finished-at="2021-01-14T16:15:16 CET" duration-ms="16897">
      <class name="TestCases.TCPMecweldGroup">
        <test-method is-config="true" signature="Initializtion()[pri:0, instance:TestCases.TCPMecweldGroup@527e5409]" started-at="2021-01-14T16:14:59 CET" name="Initializtion" finished-at="2021-01-14T16:15:02 CET" duration-ms="2618" status="PASS">
          <reporter-output>
          </reporter-output>
        </test-method> <!-- Initializtion -->
        <test-method signature="TCPNelink()[pri:0, instance:TestCases.TCPMecweldGroup@527e5409]" started-at="2021-01-14T16:15:02 CET" name="TCPNelink" finished-at="2021-01-14T16:15:16 CET" duration-ms="14279" status="PASS">
          <reporter-output>
          </reporter-output>
        </test-method> <!-- TCPNelink -->
      </class> <!-- TestCases.TCPMecweldGroup -->
    </test> <!-- TCPMecweldGroup -->
  </suite> <!-- Suite -->
</testng-results>
